com/tala/sasipa/utils/Props.class
com/tala/sasipa/service/impl/BankAccountServiceImpl.class
com/tala/sasipa/dao/BankAccountDAO.class
com/tala/sasipa/exceptions/ExceptionHandlerController.class
com/tala/sasipa/utils/JSONResponse.class
com/tala/sasipa/service/BankAccountService.class
com/tala/sasipa/model/BankAccount.class
com/tala/sasipa/controller/BankAccountController.class
com/tala/sasipa/utils/Utilities.class
com/tala/sasipa/dao/impl/BankAccountDAOImpl.class
